CBP Data Analysis • cbp.analysis
…
print(state_summary)
#> # A tibble: 48 × 2
#>    state total_encounters
#>    <chr>            <dbl>
#>  1 TX             5194011
#>  2 AZ             2106917
#>  3 CA             1757449
#>  4 FL              595699
#>  5 NM              589868
#>  6 NY              354491
#>  7 WA              132612
#>  8 IL               67282
#>  9 LA               66048
#> 10 VT               64733
#> # ℹ 38 more rows
…
